do not if($~='

	Compile with:
	
		oo,\ ick -a tpj.i

do ,1 <- #25
do ,1 sub #1  <- #91
do ,1 sub #2  <- #95
please ,1 sub #3  <- #80
do ,1 sub #4  <- #95
do ,1 sub #5  <- #84
do ,1 sub #6  <- #65
please ,1 sub #7  <- #68
do ,1 sub #8  <- #91
do ,1 sub #9  <- #95
do ,1 sub #10 <- #86
do ,1 sub #11 <- #95
do ,1 sub #12 <- #65
please ,1 sub #13 <- #74
do ,1 sub #14 <- #83
do ,1 sub #15 <- #68
please ,1 sub #16 <- #91
do ,1 sub #17 <- #95
do ,1 sub #18 <- #75
do ,1 sub #19 <- #95
please ,1 sub #20 <- #88
do ,1 sub #21 <- #71
do ,1 sub #22 <- #74
please ,1 sub #23 <- #76
do ,1 sub #24 <- #67
do ,1 sub #25 <- #83
please read out ,1
do not '
) eq '
please give up

	HINT: The above INTERCAL program is equivalent to the following Perl

',$==$[,$,="Line noise,Just That. Perl? No: (e)a true random !<lh> noise...\@";
while($;=($_=31)&4*$~=~m~sub #\d+ +<- #(\d+)~g){*_=sub{printf q$%c$,@_};$*=ord
substr($,,($#=$_+$_+1,$-=$1&$_)+$=);$-==$_||$-==$_-$;?($.++,$==$*&$#):$*=~m*.+*
&&_($&&127)};_($.+1)
